COVID--19 : Study about mortality in the US
…
First, we are going to remove the column States and sum the new cases and respectively, the new deaths, for each month to get the number of total death in the country by month :

df = df[,-c(2)]
df_us = df[,-c(4)] #delete state
df_us = df_us %>%
group_by(end_date, year, month) %>% summarise_at(vars(new_deaths_per_month,new_cases_per_month),sum) %>%
ungroup()

So now, we have the data for the US and not for each state. To compute the mortality rate, We are going to take the population of the country for each year. This means that we are going to neglect the fact that for each month, the population changes (so that we dont introduce a new data set).

Now we can have a look to the data to check that our modifications worked :

df_us

# A tibble: 21 x 6
   end_date    year month new_deaths_per_~ new_cases_per_m~ population
   <date>     <dbl> <dbl>            <dbl>            <dbl>      <dbl>
 1 2020-01-31  2020     1                0                9  331002651
 2 2020-02-29  2020     2              254              947  331002651
 3 2020-03-31  2020     3             3355           171427  331002651
 4 2020-04-30  2020     4            43760           758312  331002651
 5 2020-05-31  2020     5            38079           715761  331002651
 6 2020-06-30  2020     6            21818           906227  331002651
 7 2020-07-31  2020     7            31117          1942526  331002651
 8 2020-08-31  2020     8            30371          1389484  331002651
 9 2020-09-30  2020     9            20692          1187803  331002651
10 2020-10-31  2020    10            23329          1904660  331002651
# ... with 11 more rows
…
